[
    "Free cancellation",
    "Book now, pay later",
    "Pay at hotel",
    "Room only",
    "Breakfast",
    "Lunch",
    "Dinner",
    "Half board",
    "Full board",
    "All inclusive",
    "Hotel",
    "Hostel/Backpack",
    "Apartment",
    "Aparthotel",
    "Resort",
    "Inn",
    "Motel",
    "Bed & breakfast",
    "Guesthouse",
    "Condo",
    "All-in",
    "Hostal",
    "Swimming pool",
    "Internet access",
    "Non-smoking",
    "Air conditioning",
    "Lounges/bars",
    "Elevators",
    "outdoor pool",
    "concierge desk",
    "shopping mall",
    "Housekeeping",
    "Phone services",
    "Safe deposit box",
    "Laundry/valet",
    "Poolside snack bar",
    "Health club",
    "safe deposit box",
    "spa",
    "Multilingual staff",
    "Laundry/valet",
    "Meeting rooms",
    "smoke-free ",
    "wedding services",
    "wireless internet",
    "Restaurant",
    "Free parking",
    "Roof terrace",
    "Cloakroom service",
    "Elevator"
]